{
  "sta": 1,
  "data": {
    "result": [
      {
        "createTime": "2017-04-05 13:53:26.0",
        "resume": "宫晓萱：兴证资管副总经理（拟任）浙江大学经济学硕士。2009-2014年度兴证资管分公司投资策略总撰稿人。拥有14年的投研经验，经历过多次证券市场的牛熊波动,主要从事过机械、汽车、交通运输、家电、消费品等行业和上市公司研究，对宏观经济、证券市场以及制造业上市公司有深入理解和独到把握。擅长个股深度挖掘和精研，在业内具有较高的知名度和影响力。现任鑫成7、32、68、76号集合资产管理计划投资主办。",
        "manId": 1,
        "address": "",
        "duty": "兴证资管副总经理",
        "updateTime": "2017-04-05 13:53:26.0",
        "compName": "兴证资管",
        "manName": "宫晓萱"
      },
      {
        "createTime": "2017-04-05 13:53:26.0",
        "resume": "程义全先生：合伙人，董事长兼投资总监，2007年创办理成资产，并任董事长及首席投资官，理成资产作为国内较早成立的阳光私募基金，已获得投资人及行业的充分认可；创办理成资产之前，曾任交银施罗德基金研究总监，主持交银施罗德策略及行业研究，帮助交银施罗德在基金策略配置上获得基金行业及投资人高度认可；加入交银施罗德之前，曾任长江证券研究所副所长（主持工作）、汉唐证券研究所所长/投资决策委员会委员等，期间培养出数十位新财富研究员 。南开大学经济学博士、长江商学院EMBA。",
        "manId": 2,
        "address": "上海长柳路58号大厦2203室",
        "duty": "合伙人，董事长兼投资总监",
        "updateTime": "2017-04-05 13:53:26.0",
        "compName": "理成资产",
        "manName": "程义全"
      },
      {
        "createTime": "2017-04-05 13:53:26.0",
        "resume": "清华大学学士、上海交通大学硕士，曾先后担任中国国际金融有限公司机械行业及中小盘首席分析师，招商证券股份有限公司计算机行业分析师。任职期间曾获得“新财富最佳行业分析师”、《中国证券报》“中国最佳证券分析师”等诸多荣誉。在罗先生的带领下，中金机械行业、中小盘及招商计算机研究团队在资本市场有着广泛的影响力。机械行业下分18个子行业，计算机行业下分3个子行业，而中小盘更是涵盖大多数行业类别，罗先生熟悉种类繁多且跨度非常大的行业。2013年1月，罗先生创立了北京汉和汉华资本管理有限公司，担任投资总监，负责公司整体经营。",
        "manId": 3,
        "address": "",
        "duty": "投资总监",
        "updateTime": "2017-04-05 13:53:26.0",
        "compName": "汉和资本",
        "manName": "罗晓春"
      },
      {
        "createTime": "2017-04-05 13:53:26.0",
        "resume": "沈洋：基金经理12年从业经历；曾任红塔证券研发中心研究员；曾任天相投资顾问公司研究员；曾任中欧基金管理公司专户副总监、中欧新蓝筹、中欧中小盘基金基金经理；现任上海潼骁投资发展中心（有限合伙）基金经理。",
        "manId": 4,
        "address": "",
        "duty": "基金经理",
        "updateTime": "2017-04-05 13:53:26.0",
        "compName": "潼骁投资",
        "manName": "沈洋"
      },
      {
        "createTime": "2017-04-05 13:53:26.0",
        "resume": "证券从业经历超过15年,经验丰富,过往业绩良好,已形成完整盈利模式.荣获”2005年度中国最佳证券分析师评选”之”明星分析师”和”独立见解分析师”、2011  STARMINE  ANALYST  AWRDS  能源和化工行业最佳选股第三名等多项国内外大奖。\r\n\r\n先后荣获由CCTV《中国证券》栏目、《中国证券报》、今日投资财经资讯有限公司联合主办的“2005年度中国最佳证券分析师评选”之“明星分析师奖”和“独立见解分析师奖”、“2008年度中国最佳证券分析师评选”之“化工品行业最佳分析师”和汤森路透集团颁发的“2011 STARMINE ANALYST AWARDS 能源和化工行业(香港和中国地区）最佳选股第三名”。",
        "manId": 5,
        "address": "北京市西城区金融大街28号盈泰中心2号楼16层",
        "duty": "研究总监",
        "updateTime": "2017-04-05 13:53:26.0",
        "compName": "金元证券资管分公司",
        "manName": "徐文峰"
      },
      {
        "createTime": "2017-04-05 13:53:26.0",
        "resume": "复旦大学理学硕士，中国注册会计师（CPA）。14年投资研究经历，4年基金从业经历。1998年7月起任职于港澳证券公司研究发展中心，2000年5月起任职于兴业证券公司研究发展中心，具有丰富的行业公司研究经验。2007年2月加入长信基金，担任高级研究员，负责大IT行业研究。\r\n2010年负责的专户理财产品跑赢同期沪深300指数9%，2011年负责的定向资产管理计划跑赢同期沪深300指数9.5%。 现任天风证券上海证券资产管理分公司投资研究部资深投资经理，“天泽1号”拟任投资主办。",
        "manId": 6,
        "address": "",
        "duty": "投资副总监",
        "updateTime": "2017-04-05 13:53:26.0",
        "compName": "天风证券资管",
        "manName": "王金沿"
      },
      {
        "createTime": "2017-04-05 13:53:26.0",
        "resume": "合伙人、董事长\r\n毕业于复旦大学哲学专业、华东师范大学世界经济专业，任教于华东政法大学。 \r\n自1992年起涉足证券期货领域，在中商期货交易所和期货公司负责市场分析工作。在南方证券研究所、财务顾问中心任研究员和负责人，中国建银证券投资银行部副总经理，从事并购与财务顾问业务，参与上市公司资产重组，主持拟上市公司上市铺导工作，担任湖南省、黑龙江省、西安市、长春市等地方政府财务顾问与区域资本运营工作，撰写“地方政府财务顾问”和“企业财务顾问”（经济科学出版社），参与证券公司风险控制、上市公司资产重组等政府课题。 \r\n担任上海明熙投资公司、杭州久利投资公司执行董事，杭州鑫德投资公司总经理、副董事长，涉足实业与矿业投资和私募资产管理业务，兼任上海物联网基金投资委员会委员。倡导以投行的眼光发现投资机会，打通一级与二级市场投资管理产业链。 目前创办东方平昇投资管理有限公司，以绝对收益和价值创造为目标，力争打造国内值得信赖的财富管理机构。\r\n",
        "manId": 7,
        "address": "",
        "duty": "合伙人,董事长",
        "updateTime": "2017-04-05 13:53:26.0",
        "compName": "深圳东方平昇投资",
        "manName": "宋建华"
      },
      {
        "createTime": "2017-04-05 13:53:26.0",
        "resume": "研究总监。西南财经大学，经济学硕士。十年证券从业经验，先后于新疆证券研究所、兴业证券研究所、东吴基金研究部从事消费类研究工作。\r\n2012年出任东吴基金基金经理并取得优异业绩。2014年重点布局的军工、互联网+、高铁、券商等均获得较好收益。\r\n2012年管理期间，东吴嘉禾优势精选混合型证券投资基金，取得混合型基金第1名， 东吴新经济股票型证券投资基金，投资业绩取得股票型基金第3名。",
        "manId": 8,
        "address": "",
        "updateTime": "2017-04-05 13:53:26.0",
        "compName": "朴信投资",
        "manName": "邹国英"
      },
      {
        "createTime": "2017-04-05 13:53:26.0",
        "resume": "张发余：研究总监。南开大学经济学博士，14年证券从业年限。历任长江证券研究员，中银基金研究员、研究总监、基金经理，中银基金副总裁。有4年以上证券公司自营业务经验，2年以上卖方宏观策略研究经历，8年公募基金研究总监，4年以上公募基金经理投资经历。擅长自上而下的宏观策略分析和行业选择。单独管理公募基金产品3只，过去三年所管理产品业绩年化投资收益在20%以上。2015年4月加入万吨资产管理公司。经济学博士，16年证券从业年限。研究专长：构建了相对完善的宏观策略分析框架，对宏观经济周期、大类资产配置和行业选择有独到的见解。研究和投资经验：历任长江证券研究员、长江证券研究所投资策略分析师。中银价值、中银中小盘和中银研究精选基金基金经理，2007年起任中银基金研究部总经理。2015年4月加入上海万吨资产管理有限公司，任研究总监",
        "manId": 9,
        "address": "上海市浦东新区银城中路200号中银大厦2303室",
        "duty": "合伙人,研究总监",
        "updateTime": "2017-04-05 13:53:26.0",
        "compName": "万吨资产",
        "manName": "张发余"
      },
      {
        "createTime": "2017-04-05 13:53:26.0",
        "resume": "戴祖祥，研究副总监。戴先生毕业于中山大学，获经济学硕士学位，1998年加入证券业，拥有逾10年金融工作经历及投资经验。戴祖祥先生曾先后任职于君安证券有限公司债券部，国泰君安证券股份有限公司固定收益部、资产管理部、国泰君安证券（香港）研究部，历任研究员、基金经理、研究部经理、副董事等职。2006年加盟晓扬，历任研究副总监、高级基金经理、投资总监。\n",
        "manId": 10,
        "address": "",
        "duty": "研究副总监",
        "updateTime": "2017-04-05 13:53:26.0",
        "compName": "晓扬投资",
        "manName": "戴祖祥"
      }
    ],
    "totalCount": 8095,
    "pageNo": 1,
    "pageSize": 10,
    "totalPage": 810
  },
  "msg": "成功"
}