{
  "sta": 1,
  "data": {
    "result": [
      {
        "newId": 127646,
        "createTime": "2017-05-10 17:56:54.0",
        "title": "明达资产：蝉噪林逾静 鸟鸣山更幽",
        "keywords": "明达资产：蝉噪林逾静 鸟鸣山更幽,明达资产,投资策略,A股市场,第八届中国私募金牛奖",
        "publishTime": "2017年04月20日 13:41",
        "website": "新浪财经",
        "updateTime": "2017-05-18 04:22:05.0",
        "src": "微博",
        "docId": "e23ce2b86c7be65a7b73df9f75d4606a",
        "url": "http://finance.sina.com.cn/money/smjj/20170420/134126367378.shtml"
      },
      {
        "newId": 138927,
        "createTime": "2017-05-10 18:03:41.0",
        "title": "“金牛私募谈2017”之明达资产：低利率环境下，资产配置趋势将逐步转向股市",
        "keywords": "消费\n利率\n私募",
        "publishTime": "2017-04-19 15:29",
        "website": "搜狐财经",
        "updateTime": "2017-05-18 05:35:22.0",
        "docId": "ba9afbc0d2d472a20d188be499a2a226",
        "url": "http://mt.sohu.com/business/d20170419/135008636_481778.shtml"
      },
      {
        "newId": 109220,
        "createTime": "2017-05-10 17:43:59.0",
        "title": "高端聚首 融金所孙明达再度获邀出席2017IT领袖峰会",
        "publishTime": "2017-04-04 14:10:21",
        "website": "证券之星",
        "updateTime": "2017-05-18 01:40:08.0",
        "src": "中国网",
        "docId": "4364624fa66d4d989df43fe99233cca3",
        "url": "http://if.stockstar.com/SS2017040400000121.shtml"
      },
      {
        "newId": 12075,
        "author": "cpy",
        "createTime": "2017-05-06 14:23:25.0",
        "title": "明达2015投资策略曝光 万亿外资等在“门口”？",
        "publishTime": "2015-01-28 13:49:47",
        "website": "爱基金",
        "updateTime": "2017-05-17 12:41:12.0",
        "src": "经济观察网",
        "docId": "32b0e0b52dc97d8fe5efc87e2ac00a8a",
        "url": "http://fund.10jqka.com.cn/20150128/c570261925.shtml"
      },
      {
        "newId": 146165,
        "createTime": "2017-05-10 18:09:01.0",
        "title": "【观点】国信证券2015策略会 私募大佬们吵起来了",
        "keywords": "资管网, 期货, 财经, 资管",
        "publishTime": "2015-01-15 14:45:34",
        "website": "资管网",
        "updateTime": "2017-05-18 06:33:45.0",
        "abtract": "摘要：昨日下午十数位私募大佬齐聚国信，包括邱国鹭、敦和投资张志洲、博道投资莫泰山、上善若水侯安杨、东方港湾但斌、明达投资刘明达、菁英时代陈宏超、武当资产肖志虎等人。对2015年股市怎么走，各位大佬们意见并不一致，会上唇枪舌剑，好不热闹，我们一起看看吧。",
        "docId": "95e7922e911faea07aaf61509ac86e0e",
        "url": "http://www.ziguan123.com/article/12044"
      },
      {
        "newId": 92087,
        "createTime": "2017-05-10 17:35:07.0",
        "title": "第七届私募基金高峰论坛“私募证券”圆桌对话一",
        "keywords": "资管网, 期货, 财经, 资管",
        "publishTime": "2013-03-23 22:06:09",
        "website": "资管网",
        "updateTime": "2017-05-17 23:29:02.0",
        "abtract": "摘要：刘明达：去年秋天我的观点已经摆明了，大家可以去网上搜。其实我们深成指的回报是很高的，过去10年中小板福利有10%，指数涨了2倍，我支持曾总说的，三年上证50应该能涨50%—60%，因为整个经济比较成熟了，大公司比较稳固，实际大的市场长期的规则很清晰，大公司周而复始的定价在10—20倍之间。",
        "docId": "5e5fca2d24b24df146d9f7c1b2aa0084",
        "url": "http://www.ziguan123.com/article/299"
      },
      {
        "newId": 130595,
        "createTime": "2017-05-10 17:58:55.0",
        "title": "明达资产董事长刘明达：蓝筹股未来3年涨60%",
        "keywords": "明达资产董事长刘明达：蓝筹股未来3年涨60%,私募,收益,产品",
        "website": "新浪财经",
        "updateTime": "2017-05-18 04:45:52.0",
        "docId": "0db47d8862a5250c9d1d41cffc5f77ca",
        "url": "http://finance.sina.com.cn/money/smjj/20130422/101915232740.shtml"
      },
      {
        "newId": 100655,
        "createTime": "2017-05-10 17:38:59.0",
        "title": "图文：深圳市明达资产董事长刘明达",
        "keywords": "图文：深圳市明达资产董事长刘明达,私募峰会,深圳市天马资产管理有限公司董事长,康晓阳,第七届中国私募基金高峰论坛",
        "website": "新浪财经",
        "updateTime": "2017-05-18 00:30:18.0",
        "docId": "2b896b324ea7910bfb60480ed8dc310b",
        "url": "http://finance.sina.com.cn/money/smjj/20130323/155714931715.shtml"
      },
      {
        "newId": 129372,
        "createTime": "2017-05-10 17:57:01.0",
        "title": "明达资产：资本开放创造大牛市",
        "keywords": "明达资产：资本开放创造大牛市,资产,利率,沪港通",
        "website": "新浪财经",
        "updateTime": "2017-05-18 04:22:07.0",
        "docId": "61fb9e03a9c6569db8ead435c5e77c91",
        "url": "http://finance.sina.com.cn/money/fund/20150115/105721304647.shtml"
      },
      {
        "newId": 64113,
        "createTime": "2017-05-10 17:21:17.0",
        "title": "刘明达：投资人选择做得最好的可能是最危险的",
        "keywords": "刘明达：投资人选择做得最好的可能是最危险的,刘明达,私募,公募,第七届中国私募基金高峰论坛",
        "website": "新浪财经",
        "updateTime": "2017-05-17 19:42:22.0",
        "docId": "b535705e521e6a27d7e8de708e6f4a2c",
        "url": "http://finance.sina.com.cn/money/smjj/20130323/175514932074.shtml"
      }
    ],
    "totalCount": 12,
    "pageNo": 1,
    "pageSize": 10,
    "totalPage": 2
  },
  "msg": "成功"
}