{
  "sta": 1,
  "data": {
    "result": [
      {
        "createTime": "2017-04-05 13:47:40.0",
        "compFullName": "上海朝阳永续信息技术有限公司",
        "compId": 4,
        "updateTime": "2017-04-05 17:23:03.0",
        "compName": "朝阳永续",
        "compCategory": "私募公司",
        "city": "市辖区"
      },
      {
        "createTime": "2017-04-05 13:47:40.0",
        "regCode": "P1003444",
        "compFullName": "上海环懿投资有限公司",
        "compId": 54,
        "foundDate": "2013-09-06 00:00:00",
        "regTime": "2014-06-04 00:00:00.0",
        "updateTime": "2017-04-05 17:23:03.0",
        "orgCode": "07811304-8",
        "compName": "环懿投资",
        "compCategory": "私募公司",
        "legalPerson": "王颖",
        "city": "市辖区"
      },
      {
        "createTime": "2017-04-05 13:47:40.0",
        "regCode": "P1006935",
        "compFullName": "北京科瑞菲亚投资管理有限公司",
        "compId": 55,
        "foundDate": "2014-06-09 00:00:00",
        "regTime": "2015-01-28 00:00:00.0",
        "updateTime": "2017-04-05 17:23:03.0",
        "orgCode": "30631268-0",
        "compName": "北京科瑞菲亚投资",
        "compCategory": "私募公司",
        "legalPerson": "徐立雅",
        "city": "市辖区"
      },
      {
        "createTime": "2017-04-05 13:47:40.0",
        "regCode": "P1022230",
        "compFullName": "上海稻泽投资管理有限公司",
        "compId": 56,
        "foundDate": "2014-12-19 00:00:00",
        "regTime": "2015-09-02 00:00:00.0",
        "updateTime": "2017-04-05 17:23:03.0",
        "orgCode": "32422906-3",
        "compName": "上海稻泽投资",
        "compCategory": "私募公司",
        "legalPerson": "祁善斌",
        "city": "市辖区"
      },
      {
        "createTime": "2017-04-05 13:47:40.0",
        "regCode": "P1015897",
        "compFullName": "平安资产管理有限责任公司",
        "compId": 157,
        "foundDate": "2005-05-27 00:00:00",
        "regTime": "2015-06-17 00:00:00.0",
        "updateTime": "2017-04-05 17:23:03.0",
        "orgCode": "71093344-6",
        "compName": "平安资产",
        "compCategory": "私募公司",
        "legalPerson": "万放",
        "city": "市辖区"
      },
      {
        "createTime": "2017-04-05 13:47:40.0",
        "compFullName": "上海邦联资产管理有限公司",
        "compId": 161,
        "updateTime": "2017-04-05 17:23:03.0",
        "compName": "上海邦联",
        "compCategory": "私募公司",
        "city": "市辖区"
      },
      {
        "createTime": "2017-04-05 13:47:40.0",
        "regCode": "P1018050",
        "compFullName": "上海宝施投资有限公司",
        "compId": 162,
        "foundDate": "2006-02-17 00:00:00",
        "regTime": "2015-07-17 00:00:00.0",
        "updateTime": "2017-04-05 17:23:03.0",
        "orgCode": "78560882-4",
        "compName": "宝施投资",
        "compCategory": "私募公司",
        "legalPerson": "王春洁",
        "city": "市辖区"
      },
      {
        "createTime": "2017-04-05 13:47:40.0",
        "compFullName": "北京北方晶技投资咨询有限公司",
        "compId": 164,
        "updateTime": "2017-04-05 17:23:03.0",
        "compName": "北方晶技投资",
        "compCategory": "私募公司",
        "city": "市辖区"
      },
      {
        "createTime": "2017-04-05 13:47:40.0",
        "regCode": "P1005810",
        "compFullName": "北京金典银桥国际投资有限公司",
        "compId": 165,
        "foundDate": "2002-06-11 00:00:00",
        "regTime": "2015-01-07 00:00:00.0",
        "updateTime": "2017-04-05 17:23:03.0",
        "orgCode": "74005271-1",
        "compName": "北京金典银桥国际投资",
        "compCategory": "私募公司",
        "legalPerson": "尉恺杰",
        "city": "市辖区"
      },
      {
        "createTime": "2017-04-05 13:47:40.0",
        "regCode": "P1008414",
        "compFullName": "温州汇益资产管理有限公司",
        "compId": 180,
        "foundDate": "2012-10-18 00:00:00",
        "regTime": "2015-02-15 00:00:00.0",
        "updateTime": "2017-04-06 16:31:26.0",
        "orgCode": "05553511-7",
        "compName": "汇益资产",
        "compCategory": "私募公司",
        "legalPerson": "孙克",
        "city": "温州市"
      },
      {
        "createTime": "2017-04-05 13:47:40.0",
        "regCode": "P1002446",
        "compFullName": "上海嘉裕投资管理有限公司",
        "compId": 181,
        "foundDate": "2007-08-30 00:00:00",
        "regTime": "2014-05-26 00:00:00.0",
        "updateTime": "2017-04-05 17:23:03.0",
        "orgCode": "78515181-X",
        "compName": "嘉裕投资",
        "compCategory": "私募公司",
        "legalPerson": "刘方生",
        "city": "市辖区"
      },
      {
        "createTime": "2017-04-05 13:47:40.0",
        "regCode": "P1000289",
        "compFullName": "江苏瑞华投资控股集团有限公司",
        "compId": 182,
        "foundDate": "2003-07-02 00:00:00",
        "regTime": "2014-04-22 00:00:00.0",
        "updateTime": "2017-04-05 17:23:03.0",
        "orgCode": "75129962-1",
        "compName": "瑞华控股",
        "compCategory": "私募公司",
        "legalPerson": "张建斌",
        "city": "南京市"
      },
      {
        "createTime": "2017-04-05 13:47:40.0",
        "compFullName": "上海京华创业投资有限公司",
        "compId": 183,
        "foundDate": "2000-06-01 00:00:00",
        "updateTime": "2017-04-05 17:23:03.0",
        "orgCode": "63201489X",
        "compName": "京华创业",
        "compCategory": "私募公司",
        "legalPerson": "杨洪林",
        "city": "市辖区"
      },
      {
        "createTime": "2017-04-05 13:47:40.0",
        "compFullName": "上海德汇集团有限公司",
        "compId": 190,
        "foundDate": "2001-04-23 00:00:00",
        "updateTime": "2017-04-05 17:23:03.0",
        "orgCode": "703307252",
        "compName": "德汇集团",
        "compCategory": "私募公司",
        "legalPerson": "薛加玉",
        "city": "市辖区"
      },
      {
        "createTime": "2017-04-05 13:47:40.0",
        "compFullName": "上海华策投资有限公司",
        "compId": 194,
        "foundDate": "2003-05-28 00:00:00",
        "updateTime": "2017-04-05 17:23:03.0",
        "orgCode": "750573799",
        "compName": "华策投资",
        "compCategory": "私募公司",
        "legalPerson": "顾弘",
        "city": "市辖区"
      },
      {
        "createTime": "2017-04-05 13:47:40.0",
        "regCode": "P1000691",
        "compFullName": "上海混沌道然资产管理有限公司",
        "compId": 195,
        "foundDate": "2007-04-13 00:00:00",
        "regTime": "2014-04-01 00:00:00.0",
        "updateTime": "2017-04-06 16:31:26.0",
        "orgCode": "66076942-1",
        "compName": "混沌道然",
        "compCategory": "私募公司",
        "legalPerson": "王歆",
        "city": "市辖区"
      },
      {
        "createTime": "2017-04-05 13:47:40.0",
        "compFullName": "上海聚池投资管理有限公司",
        "compId": 196,
        "foundDate": "2005-08-09 00:00:00",
        "updateTime": "2017-04-05 17:23:03.0",
        "orgCode": "778932183",
        "compName": "聚池投资",
        "compCategory": "私募公司",
        "legalPerson": "汪德生",
        "city": "市辖区"
      },
      {
        "createTime": "2017-04-05 13:47:40.0",
        "regCode": "P1000439",
        "compFullName": "上海融昌资产管理有限公司",
        "compId": 197,
        "foundDate": "2001-09-28 00:00:00",
        "regTime": "2014-04-22 00:00:00.0",
        "updateTime": "2017-04-05 17:23:03.0",
        "orgCode": "70336593-8",
        "compName": "融昌资产",
        "compCategory": "私募公司",
        "legalPerson": "张蕾",
        "city": "市辖区"
      },
      {
        "createTime": "2017-04-05 13:47:40.0",
        "regCode": "P1000416",
        "compFullName": "上海睿信投资管理有限公司",
        "compId": 198,
        "foundDate": "1997-12-26 00:00:00",
        "regTime": "2014-04-17 00:00:00.0",
        "updateTime": "2017-04-06 16:31:26.0",
        "orgCode": "63081980-3",
        "compName": "睿信投资",
        "compCategory": "私募公司",
        "legalPerson": "李振宁",
        "city": "市辖区"
      },
      {
        "createTime": "2017-04-05 13:47:40.0",
        "compFullName": "上海锡泉实业有限公司",
        "compId": 199,
        "foundDate": "2001-04-23 00:00:00",
        "updateTime": "2017-04-05 17:23:03.0",
        "orgCode": "703232035",
        "compName": "锡泉实业",
        "compCategory": "私募公司",
        "legalPerson": "刘昼",
        "city": "市辖区"
      }
    ],
    "totalCount": 31893,
    "pageNo": 1,
    "pageSize": 20,
    "totalPage": 1595
  },
  "msg": "成功"
}