{
  "sta": 1,
  "data": {
    "result": [
      {
        "createTime": "2017-04-05 13:37:53.0",
        "fundId": 5,
        "updateTime": "2017-04-05 17:23:56.0",
        "fundTypeStrategy": "股票多头",
        "foundationDate": "2005-11-28 00:00:00.0",
        "fundStatus": "存续中",
        "fundIssueOrg": "华润信托",
        "fundName": "明达",
        "fundFullName": "华润信托-明达证券投资集合资金信托计划"
      },
      {
        "createTime": "2017-04-05 13:37:53.0",
        "fundId": 16,
        "updateTime": "2017-04-05 17:23:56.0",
        "fundTypeStrategy": "股票多头",
        "foundationDate": "2006-09-09 00:00:00.0",
        "fundStatus": "已终止",
        "fundIssueOrg": "华润信托",
        "fundName": "天马证券",
        "fundFullName": "华润信托-天马证券投资集合资金信托计划"
      },
      {
        "createTime": "2017-04-05 13:37:53.0",
        "fundId": 17,
        "updateTime": "2017-04-05 17:23:56.0",
        "fundTypeStrategy": "股票多头",
        "foundationDate": "2006-10-31 00:00:00.0",
        "fundStatus": "存续中",
        "fundIssueOrg": "华润信托",
        "fundName": "景林稳健",
        "fundFullName": "华润信托-景林稳健证券投资集合资金信托计划"
      },
      {
        "createTime": "2017-04-05 13:37:53.0",
        "fundId": 22,
        "updateTime": "2017-04-05 17:23:56.0",
        "fundTypeStrategy": "股票多头",
        "foundationDate": "2006-10-24 00:00:00.0",
        "fundStatus": "存续中",
        "fundIssueOrg": "华润信托",
        "fundName": "明达2期",
        "fundFullName": "华润信托-明达2期证券投资集合资金信托计划"
      },
      {
        "createTime": "2017-04-05 13:37:53.0",
        "fundId": 23,
        "updateTime": "2017-04-05 17:23:56.0",
        "fundTypeStrategy": "股票多头",
        "foundationDate": "2006-04-18 00:00:00.0",
        "fundStatus": "存续中",
        "fundIssueOrg": "华润信托",
        "fundName": "长江稳健",
        "fundFullName": "华润信托-长江稳健证券投资集合资金信托计划"
      },
      {
        "createTime": "2017-04-05 13:37:53.0",
        "fundId": 24,
        "updateTime": "2017-04-05 17:23:56.0",
        "fundTypeStrategy": "股票多头",
        "foundationDate": "2007-02-16 00:00:00.0",
        "fundStatus": "已终止",
        "fundIssueOrg": "华润信托",
        "fundName": "泓湖1期",
        "fundFullName": "华润信托-泓湖1期证券投资集合资金信托计划"
      },
      {
        "createTime": "2017-04-05 13:37:53.0",
        "fundId": 25,
        "updateTime": "2017-04-05 17:23:56.0",
        "fundTypeStrategy": "股票多头",
        "foundationDate": "2007-01-31 00:00:00.0",
        "fundStatus": "已终止",
        "fundIssueOrg": "中诚信托",
        "fundName": "中诚证券2号",
        "fundFullName": "中诚信托证券投资集合资金信托2号计划"
      },
      {
        "createTime": "2017-04-05 13:37:53.0",
        "fundId": 27,
        "updateTime": "2017-04-05 17:23:56.0",
        "fundTypeStrategy": "股票多头",
        "foundationDate": "2007-02-28 00:00:00.0",
        "fundStatus": "已终止",
        "fundIssueOrg": "平安信托",
        "fundName": "中国机会二期",
        "fundFullName": "平安财富-中国机会二期集合资金信托计划"
      },
      {
        "createTime": "2017-04-05 13:37:53.0",
        "fundId": 28,
        "updateTime": "2017-04-05 17:23:56.0",
        "fundTypeStrategy": "股票多头",
        "foundationDate": "2006-10-17 00:00:00.0",
        "fundStatus": "已终止",
        "fundIssueOrg": "平安信托",
        "fundName": "中国机会一期",
        "fundFullName": "平安财富-中国机会一期集合资金信托计划"
      },
      {
        "createTime": "2017-04-05 13:37:53.0",
        "fundId": 29,
        "updateTime": "2017-04-05 17:23:56.0",
        "fundTypeStrategy": "股票多头",
        "foundationDate": "2007-01-16 00:00:00.0",
        "fundStatus": "存续中",
        "fundIssueOrg": "平安信托",
        "fundName": "平安金牛一期",
        "fundFullName": "平安金牛一期集合资金信托计划"
      },
      {
        "createTime": "2017-04-05 13:37:53.0",
        "fundId": 30,
        "updateTime": "2017-04-05 17:23:56.0",
        "fundTypeStrategy": "股票多头",
        "foundationDate": "2007-02-28 00:00:00.0",
        "fundStatus": "已终止",
        "fundIssueOrg": "平安信托",
        "fundName": "东方港湾马拉松",
        "fundFullName": "平安-东方港湾马拉松集合资金信托计划"
      },
      {
        "createTime": "2017-04-05 13:37:53.0",
        "fundId": 31,
        "updateTime": "2017-04-05 17:23:56.0",
        "fundTypeStrategy": "股票多头",
        "foundationDate": "2007-02-05 00:00:00.0",
        "fundStatus": "存续中",
        "fundIssueOrg": "平安信托",
        "fundName": "证大一期",
        "fundFullName": "平安-证大一期集合资金信托计划"
      },
      {
        "createTime": "2017-04-05 13:37:53.0",
        "fundId": 32,
        "updateTime": "2017-04-05 17:23:56.0",
        "fundTypeStrategy": "股票多头",
        "foundationDate": "2007-02-08 00:00:00.0",
        "fundStatus": "已终止",
        "fundIssueOrg": "平安信托",
        "fundName": "平安德丰",
        "fundFullName": "平安德丰集合资金信托计划"
      },
      {
        "createTime": "2017-04-05 13:37:53.0",
        "fundId": 39,
        "updateTime": "2017-04-05 17:23:56.0",
        "fundTypeStrategy": "股票多头",
        "foundationDate": "2007-02-08 00:00:00.0",
        "fundStatus": "存续中",
        "fundIssueOrg": "华润信托",
        "fundName": "睿信",
        "fundFullName": "华润信托-睿信证券投资集合资金信托计划"
      },
      {
        "createTime": "2017-04-05 13:37:53.0",
        "fundId": 40,
        "updateTime": "2017-04-05 17:23:56.0",
        "fundTypeStrategy": "股票多头",
        "foundationDate": "2007-04-02 00:00:00.0",
        "fundStatus": "存续中",
        "fundIssueOrg": "华润信托",
        "fundName": "明达3期",
        "fundFullName": "华润信托-明达3期证券投资集合资金信托计划"
      },
      {
        "createTime": "2017-04-05 13:37:53.0",
        "fundId": 41,
        "updateTime": "2017-04-05 17:23:56.0",
        "fundTypeStrategy": "股票多头",
        "foundationDate": "2007-03-30 00:00:00.0",
        "fundStatus": "存续中",
        "fundIssueOrg": "华润信托",
        "fundName": "景林丰收",
        "fundFullName": "华润信托-景林丰收证券投资集合资金信托计划"
      },
      {
        "createTime": "2017-04-05 13:37:53.0",
        "fundId": 42,
        "updateTime": "2017-04-05 17:23:56.0",
        "fundTypeStrategy": "股票多头",
        "foundationDate": "2007-03-20 00:00:00.0",
        "fundStatus": "存续中",
        "fundIssueOrg": "华润信托",
        "fundName": "万利富达",
        "fundFullName": "华润信托-万利富达证券投资集合资金信托计划"
      },
      {
        "createTime": "2017-04-05 13:37:53.0",
        "fundId": 43,
        "updateTime": "2017-04-05 17:23:56.0",
        "fundTypeStrategy": "股票多头",
        "foundationDate": "2007-03-28 00:00:00.0",
        "fundStatus": "存续中",
        "fundIssueOrg": "华润信托",
        "fundName": "尚诚",
        "fundFullName": "华润信托-尚诚证券投资集合资金信托计划"
      },
      {
        "createTime": "2017-04-05 13:37:53.0",
        "fundId": 44,
        "updateTime": "2017-04-05 17:23:56.0",
        "fundTypeStrategy": "股票多头",
        "foundationDate": "2007-02-28 00:00:00.0",
        "fundStatus": "存续中",
        "fundIssueOrg": "华润信托",
        "fundName": "林园",
        "fundFullName": "华润信托-林园证券投资集合资金信托计划"
      },
      {
        "createTime": "2017-04-05 13:37:53.0",
        "fundId": 45,
        "updateTime": "2017-04-05 17:23:56.0",
        "fundTypeStrategy": "股票多头",
        "foundationDate": "2007-08-27 00:00:00.0",
        "fundStatus": "存续中",
        "fundIssueOrg": "华润信托",
        "fundName": "星石3期",
        "fundFullName": "华润信托-星石3期证券投资集合资金信托计划"
      }
    ],
    "totalCount": 78880,
    "pageNo": 1,
    "pageSize": 20,
    "totalPage": 3944
  },
  "msg": "成功"
}